<svg version="1" xmlns="http://www.w3.org/2000/svg" viewBox="0 0 48 48" enable-background="new 0 0 48 48">
    <g fill="#FF9800">
        <rect x="3" y="28" width="26" height="4"/>
        <rect x="3" y="16" width="26" height="4"/>
    </g>
    <path fill="#0D8BF2" d="M43,11H20v26h23c1.1,0,2-0.9,2-2V13C45,11.9,44.1,11,43,11z"/>
    <path fill="#64B5F6" d="M20,9h-2v30h2c1.1,0,2-0.9,2-2V11C22,9.9,21.1,9,20,9z"/>
</svg>
