<svg version="1" xmlns="http://www.w3.org/2000/svg" viewBox="0 0 48 48" enable-background="new 0 0 48 48">
    <g fill="#1565C0">
        <polygon points="43.4,13 35,20 35,6"/>
        <rect x="4" y="11" width="34" height="4"/>
    </g>
    <g fill="#0D8BF2">
        <rect x="40" y="23" width="4" height="19"/>
        <rect x="34" y="23" width="4" height="19"/>
        <rect x="28" y="23" width="4" height="19"/>
        <rect x="22" y="23" width="4" height="19"/>
        <rect x="16" y="23" width="4" height="19"/>
        <rect x="10" y="23" width="4" height="19"/>
        <rect x="4" y="23" width="4" height="19"/>
    </g>
</svg>
